…
> 
> trainCsv <- trainCsv %>%
+   mutate(ACTION = as.factor(ACTION))
> 
> #Create the recipe and bake it
> 
> rf_recipe <- recipe(ACTION ~ ., data=trainCsv) %>%
+   step_mutate_at(all_numeric_predictors(), fn = factor) %>% # turn all numeric features into factors
+   step_other(all_nominal_predictors(), threshold = .001) %>% # combines categorical values that occur <5% into an "other" value
+   step_lencode_mixed(all_nominal_predictors(), outcome = vars(ACTION))
> 
> prep <- prep(rf_recipe)
> baked <- bake(prep, new_data = NULL)
> baked
# A tibble: 32,769 × 10
   RESOURCE MGR_ID ROLE_ROLLUP_1 ROLE_ROLLUP_2 ROLE_DEPTNAME ROLE_TITLE
      <dbl>  <dbl>         <dbl>         <dbl>         <dbl>      <dbl>
 1    -2.72  -5.33         -2.93         -3.08         -3.18      -3.40
 2    -2.72  -2.76         -2.93         -3.43         -2.19      -3.27
 3    -2.72  -2.76         -2.46         -2.47         -2.50      -2.10
 4    -2.72  -5.39         -2.93         -3.43         -4.19      -2.45
 5    -2.72  -2.76         -2.62         -2.07         -1.36      -2.05
 6    -2.72  -2.76         -2.67         -2.67         -2.13      -2.53
 7    -3.03  -2.76         -2.93         -3.43         -2.41      -2.60
 8    -2.72  -2.76         -2.93         -2.56         -3.26      -2.75
 9    -2.72  -2.76         -2.93         -3.28         -3.10      -2.38
10    -2.72  -2.76         -1.51         -1.53         -2.72      -2.10
# ℹ 32,759 more rows
# ℹ 4 more variables: ROLE_FAMILY_DESC <dbl>, ROLE_FAMILY <dbl>,
#   ROLE_CODE <dbl>, ACTION <fct>
…
> 
> ## Find best tuning parameters
> collect_metrics(CV_results) %>% # Gathers metrics into DF
+   filter(.metric=="roc_auc") %>%
+   ggplot(data=., aes(x=mtry, y=min_n, color=factor(mtry))) +
+   geom_line()
> 
> collect_metrics(CV_results)
# A tibble: 280 × 8
    mtry min_n .metric   .estimator   mean     n  std_err .config              
   <int> <int> <chr>     <chr>       <dbl> <int>    <dbl> <chr>                
 1     1     2 accuracy  binary     0.945      3 0.00198  Preprocessor1_Model01
 2     1     2 f_meas    binary     0.167      3 0.0111   Preprocessor1_Model01
 3     1     2 precision binary     0.696      3 0.0506   Preprocessor1_Model01
 4     1     2 recall    binary     0.0954     3 0.00770  Preprocessor1_Model01
 5     1     2 roc_auc   binary     0.850      3 0.00381  Preprocessor1_Model01
 6     1     2 sens      binary     0.0954     3 0.00770  Preprocessor1_Model01
 7     1     2 spec      binary     0.997      3 0.000669 Preprocessor1_Model01
 8     2     2 accuracy  binary     0.949      3 0.00143  Preprocessor1_Model02
 9     2     2 f_meas    binary     0.384      3 0.00979  Preprocessor1_Model02
10     2     2 precision binary     0.634      3 0.0257   Preprocessor1_Model02
# ℹ 270 more rows
…
