…
+   step_mutate_at(all_numeric_predictors(), fn = factor) %>% # turn all numeric features into factors
+   step_other(all_nominal_predictors(), threshold = .001) %>% # combines categorical values that occur <5% into an "other" value
+   step_lencode_mixed(all_nominal_predictors(), outcome = vars(ACTION))
> #%>% # dummy variable encoding
>  # step_lencode_mixed(all_nominal_predictors(), outcome = vars(target_var)) #target encoding
> # also step_lencode_glm() and step_lencode_bayes()
> 
> 
> # NOTE: some of these step functions are not appropriate to use together
> 
> # apply the recipe to your data
> prep <- prep(my_recipe)
> baked <- bake(prep, new_data = NULL)
> baked
# A tibble: 32,769 × 10
   RESOURCE MGR_ID ROLE_ROLLUP_1 ROLE_ROLLUP_2 ROLE_DEPTNAME ROLE_TITLE
      <dbl>  <dbl>         <dbl>         <dbl>         <dbl>      <dbl>
 1    -2.72  -5.33         -2.93         -3.08         -3.18      -3.40
 2    -2.72  -2.76         -2.93         -3.43         -2.19      -3.27
 3    -2.72  -2.76         -2.46         -2.47         -2.50      -2.10
 4    -2.72  -5.39         -2.93         -3.43         -4.19      -2.45
 5    -2.72  -2.76         -2.62         -2.07         -1.36      -2.05
 6    -2.72  -2.76         -2.67         -2.67         -2.13      -2.53
 7    -3.03  -2.76         -2.93         -3.43         -2.41      -2.60
 8    -2.72  -2.76         -2.93         -2.56         -3.26      -2.75
 9    -2.72  -2.76         -2.93         -3.28         -3.10      -2.38
10    -2.72  -2.76         -1.51         -1.53         -2.72      -2.10
# ℹ 32,759 more rows
# ℹ 4 more variables: ROLE_FAMILY_DESC <dbl>, ROLE_FAMILY <dbl>,
#   ROLE_CODE <dbl>, ACTION <fct>
…
> 
> ##Penalized Logistic Regression
> my_mod <- logistic_reg(mixture=tune(), penalty=tune()) %>% #Type of model
+   set_engine("glmnet")
> 
> penalized_workflow <- workflow() %>%
+   add_recipe(penReg_recipe) %>%
+   add_model(my_mod)
> 
> ## Grid of values to tune over
> tuning_grid <- grid_regular(penalty(),
+                             mixture(),
+                             levels = 10) ## L^2 total tuning possibilities
> tuning_grid
# A tibble: 100 × 2
         penalty mixture
           <dbl>   <dbl>
 1 0.0000000001        0
 2 0.00000000129       0
 3 0.0000000167        0
 4 0.000000215         0
 5 0.00000278          0
 6 0.0000359           0
 7 0.000464            0
 8 0.00599             0
 9 0.0774              0
10 1                   0
# ℹ 90 more rows
…
> 
> ## Plot Results (example)
> collect_metrics(CV_results) %>% # Gathers metrics into DF
+   filter(.metric=="roc_auc") %>%
+   ggplot(data=., aes(x=penalty, y=mean, color=factor(mixture))) +
+   geom_line()
> 
> collect_metrics(CV_results)
# A tibble: 700 × 8
         penalty mixture .metric   .estimator   mean     n  std_err .config     
           <dbl>   <dbl> <chr>     <chr>       <dbl> <int>    <dbl> <chr>       
 1 0.0000000001        0 accuracy  binary     0.942      3 0.00124  Preprocesso…
 2 0.0000000001        0 f_meas    binary     0.113      3 0.00172  Preprocesso…
 3 0.0000000001        0 precision binary     0.526      3 0.0425   Preprocesso…
 4 0.0000000001        0 recall    binary     0.0632     3 0.00176  Preprocesso…
 5 0.0000000001        0 roc_auc   binary     0.784      3 0.00437  Preprocesso…
 6 0.0000000001        0 sens      binary     0.0632     3 0.00176  Preprocesso…
 7 0.0000000001        0 spec      binary     0.996      3 0.000809 Preprocesso…
 8 0.00000000129       0 accuracy  binary     0.942      3 0.00124  Preprocesso…
 9 0.00000000129       0 f_meas    binary     0.113      3 0.00172  Preprocesso…
10 0.00000000129       0 precision binary     0.526      3 0.0425   Preprocesso…
# ℹ 690 more rows
…
