…
> 
> ##Penalized Logistic Regression
> my_mod <- logistic_reg(mixture=tune(), penalty=tune()) %>% #Type of model
+   set_engine("glmnet")
> 
> penalized_workflow <- workflow() %>%
+   add_recipe(penReg_recipe) %>%
+   add_model(my_mod)
> 
> ## Grid of values to tune over
> tuning_grid <- grid_regular(penalty(),
+                             mixture(),
+                             levels = 10) ## L^2 total tuning possibilities
> tuning_grid
# A tibble: 100 × 2
         penalty mixture
           <dbl>   <dbl>
 1 0.0000000001        0
 2 0.00000000129       0
 3 0.0000000167        0
 4 0.000000215         0
 5 0.00000278          0
 6 0.0000359           0
 7 0.000464            0
 8 0.00599             0
 9 0.0774              0
10 1                   0
# ℹ 90 more rows
…
> 
> ## Plot Results (example)
> collect_metrics(CV_results) %>% # Gathers metrics into DF
+   filter(.metric=="roc_auc") %>%
+   ggplot(data=., aes(x=penalty, y=mean, color=factor(mixture))) +
+   geom_line()
> 
> collect_metrics(CV_results)
# A tibble: 700 × 8
         penalty mixture .metric   .estimator  mean     n std_err .config       
           <dbl>   <dbl> <chr>     <chr>      <dbl> <int>   <dbl> <chr>         
 1 0.0000000001        0 accuracy  binary     0.908     3 0.00128 Preprocessor1…
 2 0.0000000001        0 f_meas    binary     0.393     3 0.0306  Preprocessor1…
 3 0.0000000001        0 precision binary     0.316     3 0.0208  Preprocessor1…
 4 0.0000000001        0 recall    binary     0.521     3 0.0514  Preprocessor1…
 5 0.0000000001        0 roc_auc   binary     0.834     3 0.00770 Preprocessor1…
 6 0.0000000001        0 sens      binary     0.521     3 0.0514  Preprocessor1…
 7 0.0000000001        0 spec      binary     0.931     3 0.00356 Preprocessor1…
 8 0.00000000129       0 accuracy  binary     0.908     3 0.00128 Preprocessor1…
 9 0.00000000129       0 f_meas    binary     0.393     3 0.0306  Preprocessor1…
10 0.00000000129       0 precision binary     0.316     3 0.0208  Preprocessor1…
# ℹ 690 more rows
…
